ply
format ascii 1.0
element vertex 13
property float32 x
property float32 y
property float32 z
element face 0
property list uint8 int32 vertex_indices
end_header
0.0 -1.4 0.0
1.0 -1.4 0.0
1.0 -1.1 0.0
0.5 -0.7 0.0
0.4 -0.4 0.0
0.4 0.5 0.0
0.5 0.6 0.0
0.3 0.6 0.0
0.5 0.8 0.0
0.55 1.0 0.0
0.5 1.2 0.0
0.3 1.4 0.0 
0.0 1.4 0.0
